(kicad_pcb (version 20171130) (host pcbnew "(5.1.5)-3")

  (general
    (thickness 1.6002)
    (drawings 7)
    (tracks 72)
    (zones 0)
    (modules 12)
    (nets 9)
  )

  (page USLetter)
  (title_block
    (rev 1)
  )

  (layers
    (0 Front signal hide)
    (1 In1.Cu signal)
    (2 In2.Cu signal)
    (31 Back signal)
    (34 B.Paste user hide)
    (35 F.Paste user hide)
    (36 B.SilkS user)
    (37 F.SilkS user)
    (38 B.Mask user)
    (39 F.Mask user)
    (44 Edge.Cuts user)
    (45 Margin user)
    (46 B.CrtYd user hide)
    (47 F.CrtYd user hide)
    (49 F.Fab user hide)
  )

  (setup
    (last_trace_width 0.254)
    (user_trace_width 0.127)
    (user_trace_width 0.254)
    (user_trace_width 0.508)
    (user_trace_width 0.762)
    (trace_clearance 0.1524)
    (zone_clearance 0.508)
    (zone_45_only no)
    (trace_min 0.127)
    (via_size 0.6858)
    (via_drill 0.3302)
    (via_min_size 0.4572)
    (via_min_drill 0.254)
    (user_via 0.6858 0.3302)
    (user_via 0.889 0.381)
    (uvia_size 0.6858)
    (uvia_drill 0.3302)
    (uvias_allowed no)
    (uvia_min_size 0)
    (uvia_min_drill 0)
    (edge_width 0.0381)
    (segment_width 0.254)
    (pcb_text_width 0.3048)
    (pcb_text_size 1.524 1.524)
    (mod_edge_width 0.127)
    (mod_text_size 0.762 0.762)
    (mod_text_width 0.127)
    (pad_size 2 2)
    (pad_drill 1)
    (pad_to_mask_clearance 0)
    (solder_mask_min_width 0.1016)
    (aux_axis_origin 95.5 124)
    (grid_origin 95.5 124)
    (visible_elements 7FFFFFFF)
    (pcbplotparams
      (layerselection 0x010fc_ffffffff)
      (usegerberextensions false)
      (usegerberattributes false)
      (usegerberadvancedattributes false)
      (creategerberjobfile false)
      (excludeedgelayer true)
      (linewidth 0.152400)
      (plotframeref false)
      (viasonmask false)
      (mode 1)
      (useauxorigin false)
      (hpglpennumber 1)
      (hpglpenspeed 20)
      (hpglpendiameter 15.000000)
      (psnegative false)
      (psa4output false)
      (plotreference true)
      (plotvalue false)
      (plotinvisibletext false)
      (padsonsilk false)
      (subtractmaskfromsilk true)
      (outputformat 1)
      (mirror false)
      (drillshape 0)
      (scaleselection 1)
      (outputdirectory "./gerbers"))
  )

  (net 0 "")
  (net 1 "Net-(C1-Pad2)")
  (net 2 "Net-(C1-Pad1)")
  (net 3 "Net-(C2-Pad2)")
  (net 4 "Net-(C2-Pad1)")
  (net 5 "Net-(C3-Pad1)")
  (net 6 "Net-(C4-Pad1)")
  (net 7 "Net-(FI3-Pad2)")
  (net 8 "Net-(FI2-Pad2)")

  (net_class Default "This is the default net class."
    (clearance 0.1524)
    (trace_width 0.254)
    (via_dia 0.6858)
    (via_drill 0.3302)
    (uvia_dia 0.6858)
    (uvia_drill 0.3302)
    (diff_pair_width 0.1524)
    (diff_pair_gap 0.254)
    (add_net "Net-(C3-Pad1)")
    (add_net "Net-(C4-Pad1)")
    (add_net "Net-(FI2-Pad2)")
    (add_net "Net-(FI3-Pad2)")
  )

  (net_class "HIGH CURRENT" ""
    (clearance 0.1524)
    (trace_width 2)
    (via_dia 0.6858)
    (via_drill 0.3302)
    (uvia_dia 0.6858)
    (uvia_drill 0.3302)
    (diff_pair_width 0.1524)
    (diff_pair_gap 0.254)
    (add_net "Net-(C1-Pad1)")
    (add_net "Net-(C1-Pad2)")
    (add_net "Net-(C2-Pad1)")
    (add_net "Net-(C2-Pad2)")
  )

  (module myParts:GKS-913-Z (layer Back) (tedit 5E880F7F) (tstamp 5E87E151)
    (at 108.7 115)
    (descr 811-S1-002-30-014101-2)
    (tags Connector)
    (path /5E88807B)
    (attr smd)
    (fp_text reference J6 (at -4.2 0) (layer B.SilkS)
      (effects (font (size 1.27 1.27) (thickness 0.254)) (justify mirror))
    )
    (fp_text value GND (at 0 -0.29) (layer B.SilkS) hide
      (effects (font (size 1.27 1.27) (thickness 0.254)) (justify mirror))
    )
    (fp_arc (start -1.35 -1.8) (end -1.4 -1.8) (angle 180) (layer B.SilkS) (width 0.2))
    (fp_arc (start -1.35 -1.8) (end -1.4 -1.8) (angle 180) (layer B.SilkS) (width 0.2))
    (fp_line (start -1.4 -1.8) (end -1.4 -1.8) (layer B.SilkS) (width 0.2))
    (fp_line (start -1.3 -1.8) (end -1.3 -1.8) (layer B.SilkS) (width 0.2))
    (fp_line (start -1.4 -1.8) (end -1.4 -1.8) (layer B.SilkS) (width 0.2))
    (fp_line (start -2.54 -2.54) (end -2.54 2.54) (layer B.SilkS) (width 0.1))
    (fp_line (start 2.54 -2.54) (end -2.54 -2.54) (layer B.SilkS) (width 0.1))
    (fp_line (start 2.54 2.54) (end 2.54 -2.54) (layer B.SilkS) (width 0.1))
    (fp_line (start -2.54 2.54) (end 2.54 2.54) (layer B.SilkS) (width 0.1))
    (fp_line (start 0 -1.27) (end 0 1.27) (layer B.Fab) (width 0.2))
    (fp_text user %R (at 0 -0.29) (layer B.Fab)
      (effects (font (size 1.27 1.27) (thickness 0.254)) (justify mirror))
    )
    (pad 1 thru_hole circle (at 0 0 270) (size 4 4) (drill 2) (layers *.Cu *.Mask)
      (net 3 "Net-(C2-Pad2)"))
    (model ${KIPRJMOD}/myParts/myparts.3dshapes/GKS-913-Z.step
      (offset (xyz 0 0 -5))
      (scale (xyz 1 1 1))
      (rotate (xyz 0 0 0))
    )
  )

  (module myParts:811S100230014101 (layer Back) (tedit 5E881DBD) (tstamp 5E87E187)
    (at 108.7 103)
    (descr 811-S1-002-30-014101-2)
    (tags Connector)
    (path /5E873E31)
    (attr smd)
    (fp_text reference J3 (at -4.2 0) (layer B.SilkS)
      (effects (font (size 1.27 1.27) (thickness 0.254)) (justify mirror))
    )
    (fp_text value + (at 3.5 0) (layer B.SilkS) hide
      (effects (font (size 1.27 1.27) (thickness 0.254)) (justify mirror))
    )
    (fp_arc (start -1.35 -1.8) (end -1.4 -1.8) (angle 180) (layer B.SilkS) (width 0.2))
    (fp_arc (start -1.35 -1.8) (end -1.3 -1.8) (angle 180) (layer B.SilkS) (width 0.2))
    (fp_arc (start -1.35 -1.8) (end -1.4 -1.8) (angle 180) (layer B.SilkS) (width 0.2))
    (fp_line (start -1.4 -1.8) (end -1.4 -1.8) (layer B.SilkS) (width 0.2))
    (fp_line (start -1.3 -1.8) (end -1.3 -1.8) (layer B.SilkS) (width 0.2))
    (fp_line (start -1.4 -1.8) (end -1.4 -1.8) (layer B.SilkS) (width 0.2))
    (fp_line (start -3.54 -2.85) (end -3.54 2.27) (layer B.CrtYd) (width 0.1))
    (fp_line (start 3.54 -2.85) (end -3.54 -2.85) (layer B.CrtYd) (width 0.1))
    (fp_line (start 3.54 2.27) (end 3.54 -2.85) (layer B.CrtYd) (width 0.1))
    (fp_line (start -3.54 2.27) (end 3.54 2.27) (layer B.CrtYd) (width 0.1))
    (fp_line (start -2.54 -1.27) (end -2.54 1.27) (layer B.SilkS) (width 0.1))
    (fp_line (start 2.54 -1.27) (end -2.54 -1.27) (layer B.SilkS) (width 0.1))
    (fp_line (start 2.54 1.27) (end 2.54 -1.27) (layer B.SilkS) (width 0.1))
    (fp_line (start -2.54 1.27) (end 2.54 1.27) (layer B.SilkS) (width 0.1))
    (fp_line (start -2.54 1.27) (end -2.54 -1.27) (layer B.Fab) (width 0.2))
    (fp_line (start 2.54 1.27) (end -2.54 1.27) (layer B.Fab) (width 0.2))
    (fp_line (start 2.54 -1.27) (end 2.54 1.27) (layer B.Fab) (width 0.2))
    (fp_line (start -2.54 -1.27) (end 2.54 -1.27) (layer B.Fab) (width 0.2))
    (fp_text user %R (at 0 -0.29) (layer B.Fab)
      (effects (font (size 1.27 1.27) (thickness 0.254)) (justify mirror))
    )
    (pad 2 smd circle (at 1.27 0 270) (size 2 2) (layers Back B.Paste B.Mask)
      (net 4 "Net-(C2-Pad1)"))
    (pad 1 smd circle (at -1.27 0 270) (size 2 2) (layers Back B.Paste B.Mask)
      (net 4 "Net-(C2-Pad1)"))
    (model ${KIPRJMOD}/myParts/myparts.3dshapes/811-S1-NNN.step
      (at (xyz 0 0 0))
      (scale (xyz 1 1 1))
      (rotate (xyz 0 0 0))
    )
  )

  (module myParts:BNX002-01 (layer Front) (tedit 5E88672B) (tstamp 5E87A9CC)
    (at 135.5 104 270)
    (descr BNX002-01)
    (tags Filter)
    (path /5E8913D9)
    (fp_text reference FL1 (at -3.5 -0.0126 90) (layer F.SilkS)
      (effects (font (size 1.27 1.27) (thickness 0.254)))
    )
    (fp_text value BNX002-01 (at -0.30362 -0.0126 90) (layer F.SilkS) hide
      (effects (font (size 1.27 1.27) (thickness 0.254)))
    )
    (fp_circle (center -2.64 6.079) (end -2.64 6.14123) (layer F.SilkS) (width 0.2))
    (fp_line (start 6 5.5) (end -6 5.5) (layer F.SilkS) (width 0.2))
    (fp_line (start 6 -5.5) (end 6 5.5) (layer F.SilkS) (width 0.2))
    (fp_line (start -6 -5.5) (end 6 -5.5) (layer F.SilkS) (width 0.2))
    (fp_line (start -6 5.5) (end -6 -5.5) (layer F.SilkS) (width 0.2))
    (fp_line (start -6 5.5) (end -6 -5.5) (layer F.Fab) (width 0.2))
    (fp_line (start 6 5.5) (end -6 5.5) (layer F.Fab) (width 0.2))
    (fp_line (start 6 -5.5) (end 6 5.5) (layer F.Fab) (width 0.2))
    (fp_line (start -6 -5.5) (end 6 -5.5) (layer F.Fab) (width 0.2))
    (fp_text user %R (at -0.30362 -0.0126 90) (layer F.Fab)
      (effects (font (size 1.27 1.27) (thickness 0.254)))
    )
    (pad 6 thru_hole circle (at 5 0 270) (size 2.5 2.5) (drill 1.2) (layers *.Cu *.Mask)
      (net 3 "Net-(C2-Pad2)"))
    (pad 5 thru_hole circle (at 2.5 -2.5 270) (size 2.5 2.5) (drill 1.2) (layers *.Cu *.Mask)
      (net 2 "Net-(C1-Pad1)"))
    (pad 4 thru_hole circle (at 2.5 2.5 270) (size 2.5 2.5) (drill 1.2) (layers *.Cu *.Mask)
      (net 4 "Net-(C2-Pad1)"))
    (pad 3 thru_hole circle (at 0 0 270) (size 2.5 2.5) (drill 1.2) (layers *.Cu *.Mask)
      (net 3 "Net-(C2-Pad2)"))
    (pad 2 thru_hole circle (at -2.5 -2.5 270) (size 2.5 2.5) (drill 1.2) (layers *.Cu *.Mask)
      (net 1 "Net-(C1-Pad2)"))
    (pad 1 thru_hole circle (at -2.5 2.5 270) (size 2.5 2.5) (drill 1.2) (layers *.Cu *.Mask)
      (net 3 "Net-(C2-Pad2)"))
    (model ${KIPRJMOD}/myParts/myparts.3dshapes/BNX002-01.step
      (at (xyz 0 0 0))
      (scale (xyz 1 1 1))
      (rotate (xyz 0 0 0))
    )
  )

  (module myParts:811S100230014101 (layer Back) (tedit 5E881DBD) (tstamp 5E87E1CF)
    (at 108.7 111)
    (descr 811-S1-002-30-014101-2)
    (tags Connector)
    (path /5E8785F1)
    (attr smd)
    (fp_text reference J5 (at -4.2 0) (layer B.SilkS)
      (effects (font (size 1.27 1.27) (thickness 0.254)) (justify mirror))
    )
    (fp_text value T (at 3.8 0) (layer B.SilkS) hide
      (effects (font (size 1.27 1.27) (thickness 0.254)) (justify mirror))
    )
    (fp_arc (start -1.35 -1.8) (end -1.4 -1.8) (angle 180) (layer B.SilkS) (width 0.2))
    (fp_arc (start -1.35 -1.8) (end -1.3 -1.8) (angle 180) (layer B.SilkS) (width 0.2))
    (fp_arc (start -1.35 -1.8) (end -1.4 -1.8) (angle 180) (layer B.SilkS) (width 0.2))
    (fp_line (start -1.4 -1.8) (end -1.4 -1.8) (layer B.SilkS) (width 0.2))
    (fp_line (start -1.3 -1.8) (end -1.3 -1.8) (layer B.SilkS) (width 0.2))
    (fp_line (start -1.4 -1.8) (end -1.4 -1.8) (layer B.SilkS) (width 0.2))
    (fp_line (start -3.54 -2.85) (end -3.54 2.27) (layer B.CrtYd) (width 0.1))
    (fp_line (start 3.54 -2.85) (end -3.54 -2.85) (layer B.CrtYd) (width 0.1))
    (fp_line (start 3.54 2.27) (end 3.54 -2.85) (layer B.CrtYd) (width 0.1))
    (fp_line (start -3.54 2.27) (end 3.54 2.27) (layer B.CrtYd) (width 0.1))
    (fp_line (start -2.54 -1.27) (end -2.54 1.27) (layer B.SilkS) (width 0.1))
    (fp_line (start 2.54 -1.27) (end -2.54 -1.27) (layer B.SilkS) (width 0.1))
    (fp_line (start 2.54 1.27) (end 2.54 -1.27) (layer B.SilkS) (width 0.1))
    (fp_line (start -2.54 1.27) (end 2.54 1.27) (layer B.SilkS) (width 0.1))
    (fp_line (start -2.54 1.27) (end -2.54 -1.27) (layer B.Fab) (width 0.2))
    (fp_line (start 2.54 1.27) (end -2.54 1.27) (layer B.Fab) (width 0.2))
    (fp_line (start 2.54 -1.27) (end 2.54 1.27) (layer B.Fab) (width 0.2))
    (fp_line (start -2.54 -1.27) (end 2.54 -1.27) (layer B.Fab) (width 0.2))
    (fp_text user %R (at 0 -0.29) (layer B.Fab)
      (effects (font (size 1.27 1.27) (thickness 0.254)) (justify mirror))
    )
    (pad 2 smd circle (at 1.27 0 270) (size 2 2) (layers Back B.Paste B.Mask)
      (net 6 "Net-(C4-Pad1)"))
    (pad 1 smd circle (at -1.27 0 270) (size 2 2) (layers Back B.Paste B.Mask)
      (net 6 "Net-(C4-Pad1)"))
    (model ${KIPRJMOD}/myParts/myparts.3dshapes/811-S1-NNN.step
      (at (xyz 0 0 0))
      (scale (xyz 1 1 1))
      (rotate (xyz 0 0 0))
    )
  )

  (module myParts:811S100230014101 (layer Back) (tedit 5E881DBD) (tstamp 5E87E43B)
    (at 108.7 107)
    (descr 811-S1-002-30-014101-2)
    (tags Connector)
    (path /5E8778EF)
    (attr smd)
    (fp_text reference J4 (at -4.2 0) (layer B.SilkS)
      (effects (font (size 1.27 1.27) (thickness 0.254)) (justify mirror))
    )
    (fp_text value BAT_EEPROM (at 7.8 0) (layer B.SilkS) hide
      (effects (font (size 1.27 1) (thickness 0.25)) (justify mirror))
    )
    (fp_arc (start -1.35 -1.8) (end -1.4 -1.8) (angle 180) (layer B.SilkS) (width 0.2))
    (fp_arc (start -1.35 -1.8) (end -1.3 -1.8) (angle 180) (layer B.SilkS) (width 0.2))
    (fp_arc (start -1.35 -1.8) (end -1.4 -1.8) (angle 180) (layer B.SilkS) (width 0.2))
    (fp_line (start -1.4 -1.8) (end -1.4 -1.8) (layer B.SilkS) (width 0.2))
    (fp_line (start -1.3 -1.8) (end -1.3 -1.8) (layer B.SilkS) (width 0.2))
    (fp_line (start -1.4 -1.8) (end -1.4 -1.8) (layer B.SilkS) (width 0.2))
    (fp_line (start -3.54 -2.85) (end -3.54 2.27) (layer B.CrtYd) (width 0.1))
    (fp_line (start 3.54 -2.85) (end -3.54 -2.85) (layer B.CrtYd) (width 0.1))
    (fp_line (start 3.54 2.27) (end 3.54 -2.85) (layer B.CrtYd) (width 0.1))
    (fp_line (start -3.54 2.27) (end 3.54 2.27) (layer B.CrtYd) (width 0.1))
    (fp_line (start -2.54 -1.27) (end -2.54 1.27) (layer B.SilkS) (width 0.1))
    (fp_line (start 2.54 -1.27) (end -2.54 -1.27) (layer B.SilkS) (width 0.1))
    (fp_line (start 2.54 1.27) (end 2.54 -1.27) (layer B.SilkS) (width 0.1))
    (fp_line (start -2.54 1.27) (end 2.54 1.27) (layer B.SilkS) (width 0.1))
    (fp_line (start -2.54 1.27) (end -2.54 -1.27) (layer B.Fab) (width 0.2))
    (fp_line (start 2.54 1.27) (end -2.54 1.27) (layer B.Fab) (width 0.2))
    (fp_line (start 2.54 -1.27) (end 2.54 1.27) (layer B.Fab) (width 0.2))
    (fp_line (start -2.54 -1.27) (end 2.54 -1.27) (layer B.Fab) (width 0.2))
    (fp_text user %R (at 0 -0.29) (layer B.Fab)
      (effects (font (size 1.27 1.27) (thickness 0.254)) (justify mirror))
    )
    (pad 2 smd circle (at 1.27 0 270) (size 2 2) (layers Back B.Paste B.Mask)
      (net 5 "Net-(C3-Pad1)"))
    (pad 1 smd circle (at -1.27 0 270) (size 2 2) (layers Back B.Paste B.Mask)
      (net 5 "Net-(C3-Pad1)"))
    (model ${KIPRJMOD}/myParts/myparts.3dshapes/811-S1-NNN.step
      (at (xyz 0 0 0))
      (scale (xyz 1 1 1))
      (rotate (xyz 0 0 0))
    )
  )

  (module Connector_IDC:IDC-Header_2x05_P2.54mm_Horizontal (layer Front) (tedit 59DE1F47) (tstamp 5E86E475)
    (at 137 92 90)
    (descr "Through hole angled IDC box header, 2x05, 2.54mm pitch, double rows")
    (tags "Through hole IDC box header THT 2x05 2.54mm double row")
    (path /5E873E41)
    (fp_text reference J1 (at 6.105 -6.35 90) (layer F.SilkS)
      (effects (font (size 1 1) (thickness 0.15)))
    )
    (fp_text value Conn_02x05_Odd_Even (at 6.105 16.51 90) (layer F.Fab)
      (effects (font (size 1 1) (thickness 0.15)))
    )
    (fp_line (start 13.48 15.51) (end -1.12 15.51) (layer F.CrtYd) (width 0.05))
    (fp_line (start 13.48 -5.35) (end 13.48 15.51) (layer F.CrtYd) (width 0.05))
    (fp_line (start -1.12 15.51) (end -1.12 -5.35) (layer F.CrtYd) (width 0.05))
    (fp_line (start -1.12 -5.35) (end 13.48 -5.35) (layer F.CrtYd) (width 0.05))
    (fp_line (start 4.13 7.33) (end 13.48 7.33) (layer F.SilkS) (width 0.12))
    (fp_line (start 4.13 2.83) (end 13.48 2.83) (layer F.SilkS) (width 0.12))
    (fp_line (start 4.13 15.51) (end 4.13 -5.35) (layer F.SilkS) (width 0.12))
    (fp_line (start 4.13 15.51) (end 13.48 15.51) (layer F.SilkS) (width 0.12))
    (fp_line (start 4.13 -5.35) (end 13.48 -5.35) (layer F.SilkS) (width 0.12))
    (fp_line (start 13.48 -5.35) (end 13.48 15.51) (layer F.SilkS) (width 0.12))
    (fp_line (start 0 -1.27) (end -1.27 -1.27) (layer F.SilkS) (width 0.12))
    (fp_line (start -1.27 -1.27) (end -1.27 0) (layer F.SilkS) (width 0.12))
    (fp_line (start 5.38 -5.1) (end 13.23 -5.1) (layer F.Fab) (width 0.1))
    (fp_line (start 4.38 9.84) (end -0.32 9.84) (layer F.Fab) (width 0.1))
    (fp_line (start 4.38 7.33) (end 13.23 7.33) (layer F.Fab) (width 0.1))
    (fp_line (start 4.38 7.3) (end -0.32 7.3) (layer F.Fab) (width 0.1))
    (fp_line (start 4.38 4.76) (end -0.32 4.76) (layer F.Fab) (width 0.1))
    (fp_line (start 4.38 2.83) (end 13.23 2.83) (layer F.Fab) (width 0.1))
    (fp_line (start 4.38 2.22) (end -0.32 2.22) (layer F.Fab) (width 0.1))
    (fp_line (start 4.38 15.26) (end 4.38 -4.1) (layer F.Fab) (width 0.1))
    (fp_line (start 4.38 15.26) (end 13.23 15.26) (layer F.Fab) (width 0.1))
    (fp_line (start 4.38 -4.1) (end 5.38 -5.1) (layer F.Fab) (width 0.1))
    (fp_line (start 4.38 -0.32) (end -0.32 -0.32) (layer F.Fab) (width 0.1))
    (fp_line (start 13.23 15.26) (end 13.23 -5.1) (layer F.Fab) (width 0.1))
    (fp_line (start -0.32 9.84) (end -0.32 10.48) (layer F.Fab) (width 0.1))
    (fp_line (start -0.32 7.94) (end 4.38 7.94) (layer F.Fab) (width 0.1))
    (fp_line (start -0.32 7.3) (end -0.32 7.94) (layer F.Fab) (width 0.1))
    (fp_line (start -0.32 5.4) (end 4.38 5.4) (layer F.Fab) (width 0.1))
    (fp_line (start -0.32 4.76) (end -0.32 5.4) (layer F.Fab) (width 0.1))
    (fp_line (start -0.32 2.86) (end 4.38 2.86) (layer F.Fab) (width 0.1))
    (fp_line (start -0.32 2.22) (end -0.32 2.86) (layer F.Fab) (width 0.1))
    (fp_line (start -0.32 10.48) (end 4.38 10.48) (layer F.Fab) (width 0.1))
    (fp_line (start -0.32 0.32) (end 4.38 0.32) (layer F.Fab) (width 0.1))
    (fp_line (start -0.32 -0.32) (end -0.32 0.32) (layer F.Fab) (width 0.1))
    (fp_text user %R (at 8.805 5.08) (layer F.Fab)
      (effects (font (size 1 1) (thickness 0.15)))
    )
    (pad 10 thru_hole oval (at 2.54 10.16 90) (size 1.7272 1.7272) (drill 1.016) (layers *.Cu *.Mask)
      (net 2 "Net-(C1-Pad1)"))
    (pad 9 thru_hole oval (at 0 10.16 90) (size 1.7272 1.7272) (drill 1.016) (layers *.Cu *.Mask)
      (net 2 "Net-(C1-Pad1)"))
    (pad 8 thru_hole oval (at 2.54 7.62 90) (size 1.7272 1.7272) (drill 1.016) (layers *.Cu *.Mask)
      (net 2 "Net-(C1-Pad1)"))
    (pad 7 thru_hole oval (at 0 7.62 90) (size 1.7272 1.7272) (drill 1.016) (layers *.Cu *.Mask)
      (net 2 "Net-(C1-Pad1)"))
    (pad 6 thru_hole oval (at 2.54 5.08 90) (size 1.7272 1.7272) (drill 1.016) (layers *.Cu *.Mask)
      (net 8 "Net-(FI2-Pad2)"))
    (pad 5 thru_hole oval (at 0 5.08 90) (size 1.7272 1.7272) (drill 1.016) (layers *.Cu *.Mask)
      (net 7 "Net-(FI3-Pad2)"))
    (pad 4 thru_hole oval (at 2.54 2.54 90) (size 1.7272 1.7272) (drill 1.016) (layers *.Cu *.Mask)
      (net 1 "Net-(C1-Pad2)"))
    (pad 3 thru_hole oval (at 0 2.54 90) (size 1.7272 1.7272) (drill 1.016) (layers *.Cu *.Mask)
      (net 1 "Net-(C1-Pad2)"))
    (pad 2 thru_hole oval (at 2.54 0 90) (size 1.7272 1.7272) (drill 1.016) (layers *.Cu *.Mask)
      (net 1 "Net-(C1-Pad2)"))
    (pad 1 thru_hole rect (at 0 0 90) (size 1.7272 1.7272) (drill 1.016) (layers *.Cu *.Mask)
      (net 1 "Net-(C1-Pad2)"))
    (model ${KISYS3DMOD}/Connector_IDC.3dshapes/IDC-Header_2x05_P2.54mm_Horizontal.wrl
      (at (xyz 0 0 0))
      (scale (xyz 1 1 1))
      (rotate (xyz 0 0 0))
    )
  )

  (module Resistor_SMD:R_0603_1608Metric (layer Back) (tedit 5B301BBD) (tstamp 5E86E444)
    (at 127 89 90)
    (descr "Resistor SMD 0603 (1608 Metric), square (rectangular) end terminal, IPC_7351 nominal, (Body size source: http://www.tortai-tech.com/upload/download/2011102023233369053.pdf), generated with kicad-footprint-generator")
    (tags resistor)
    (path /5E86D3B5)
    (attr smd)
    (fp_text reference FI3 (at 0 1.43 90) (layer B.SilkS)
      (effects (font (size 1 1) (thickness 0.15)) (justify mirror))
    )
    (fp_text value "Ferrite bead" (at 0 -1.43 90) (layer B.Fab)
      (effects (font (size 1 1) (thickness 0.15)) (justify mirror))
    )
    (fp_text user %R (at 0 0 90) (layer B.Fab) hide
      (effects (font (size 0.4 0.4) (thickness 0.06)) (justify mirror))
    )
    (fp_line (start 1.48 -0.73) (end -1.48 -0.73) (layer B.CrtYd) (width 0.05))
    (fp_line (start 1.48 0.73) (end 1.48 -0.73) (layer B.CrtYd) (width 0.05))
    (fp_line (start -1.48 0.73) (end 1.48 0.73) (layer B.CrtYd) (width 0.05))
    (fp_line (start -1.48 -0.73) (end -1.48 0.73) (layer B.CrtYd) (width 0.05))
    (fp_line (start -0.162779 -0.51) (end 0.162779 -0.51) (layer B.SilkS) (width 0.12))
    (fp_line (start -0.162779 0.51) (end 0.162779 0.51) (layer B.SilkS) (width 0.12))
    (fp_line (start 0.8 -0.4) (end -0.8 -0.4) (layer B.Fab) (width 0.1))
    (fp_line (start 0.8 0.4) (end 0.8 -0.4) (layer B.Fab) (width 0.1))
    (fp_line (start -0.8 0.4) (end 0.8 0.4) (layer B.Fab) (width 0.1))
    (fp_line (start -0.8 -0.4) (end -0.8 0.4) (layer B.Fab) (width 0.1))
    (pad 2 smd roundrect (at 0.7875 0 90) (size 0.875 0.95) (layers Back B.Paste B.Mask) (roundrect_rratio 0.25)
      (net 7 "Net-(FI3-Pad2)"))
    (pad 1 smd roundrect (at -0.7875 0 90) (size 0.875 0.95) (layers Back B.Paste B.Mask) (roundrect_rratio 0.25)
      (net 6 "Net-(C4-Pad1)"))
    (model ${KISYS3DMOD}/Resistor_SMD.3dshapes/R_0603_1608Metric.wrl
      (at (xyz 0 0 0))
      (scale (xyz 1 1 1))
      (rotate (xyz 0 0 0))
    )
  )

  (module Resistor_SMD:R_0603_1608Metric (layer Back) (tedit 5B301BBD) (tstamp 5E86E433)
    (at 123.5 89 90)
    (descr "Resistor SMD 0603 (1608 Metric), square (rectangular) end terminal, IPC_7351 nominal, (Body size source: http://www.tortai-tech.com/upload/download/2011102023233369053.pdf), generated with kicad-footprint-generator")
    (tags resistor)
    (path /5E86CF8E)
    (attr smd)
    (fp_text reference FI2 (at 0 1.43 90) (layer B.SilkS)
      (effects (font (size 1 1) (thickness 0.15)) (justify mirror))
    )
    (fp_text value "Ferrite bead" (at 0 -1.43 90) (layer B.Fab)
      (effects (font (size 1 1) (thickness 0.15)) (justify mirror))
    )
    (fp_text user %R (at 0 0 90) (layer B.Fab) hide
      (effects (font (size 0.4 0.4) (thickness 0.06)) (justify mirror))
    )
    (fp_line (start 1.48 -0.73) (end -1.48 -0.73) (layer B.CrtYd) (width 0.05))
    (fp_line (start 1.48 0.73) (end 1.48 -0.73) (layer B.CrtYd) (width 0.05))
    (fp_line (start -1.48 0.73) (end 1.48 0.73) (layer B.CrtYd) (width 0.05))
    (fp_line (start -1.48 -0.73) (end -1.48 0.73) (layer B.CrtYd) (width 0.05))
    (fp_line (start -0.162779 -0.51) (end 0.162779 -0.51) (layer B.SilkS) (width 0.12))
    (fp_line (start -0.162779 0.51) (end 0.162779 0.51) (layer B.SilkS) (width 0.12))
    (fp_line (start 0.8 -0.4) (end -0.8 -0.4) (layer B.Fab) (width 0.1))
    (fp_line (start 0.8 0.4) (end 0.8 -0.4) (layer B.Fab) (width 0.1))
    (fp_line (start -0.8 0.4) (end 0.8 0.4) (layer B.Fab) (width 0.1))
    (fp_line (start -0.8 -0.4) (end -0.8 0.4) (layer B.Fab) (width 0.1))
    (pad 2 smd roundrect (at 0.7875 0 90) (size 0.875 0.95) (layers Back B.Paste B.Mask) (roundrect_rratio 0.25)
      (net 8 "Net-(FI2-Pad2)"))
    (pad 1 smd roundrect (at -0.7875 0 90) (size 0.875 0.95) (layers Back B.Paste B.Mask) (roundrect_rratio 0.25)
      (net 5 "Net-(C3-Pad1)"))
    (model ${KISYS3DMOD}/Resistor_SMD.3dshapes/R_0603_1608Metric.wrl
      (at (xyz 0 0 0))
      (scale (xyz 1 1 1))
      (rotate (xyz 0 0 0))
    )
  )

  (module Capacitor_SMD:C_0603_1608Metric (layer Back) (tedit 5B301BBE) (tstamp 5E86E405)
    (at 127 94.5 270)
    (descr "Capacitor SMD 0603 (1608 Metric), square (rectangular) end terminal, IPC_7351 nominal, (Body size source: http://www.tortai-tech.com/upload/download/2011102023233369053.pdf), generated with kicad-footprint-generator")
    (tags capacitor)
    (path /5E86F08E)
    (attr smd)
    (fp_text reference C4 (at 0 1.43 270) (layer B.SilkS)
      (effects (font (size 1 1) (thickness 0.15)) (justify mirror))
    )
    (fp_text value 47pF (at 0 -1.43 270) (layer B.Fab)
      (effects (font (size 1 1) (thickness 0.15)) (justify mirror))
    )
    (fp_text user %R (at 0 0 270) (layer B.Fab) hide
      (effects (font (size 0.4 0.4) (thickness 0.06)) (justify mirror))
    )
    (fp_line (start 1.48 -0.73) (end -1.48 -0.73) (layer B.CrtYd) (width 0.05))
    (fp_line (start 1.48 0.73) (end 1.48 -0.73) (layer B.CrtYd) (width 0.05))
    (fp_line (start -1.48 0.73) (end 1.48 0.73) (layer B.CrtYd) (width 0.05))
    (fp_line (start -1.48 -0.73) (end -1.48 0.73) (layer B.CrtYd) (width 0.05))
    (fp_line (start -0.162779 -0.51) (end 0.162779 -0.51) (layer B.SilkS) (width 0.12))
    (fp_line (start -0.162779 0.51) (end 0.162779 0.51) (layer B.SilkS) (width 0.12))
    (fp_line (start 0.8 -0.4) (end -0.8 -0.4) (layer B.Fab) (width 0.1))
    (fp_line (start 0.8 0.4) (end 0.8 -0.4) (layer B.Fab) (width 0.1))
    (fp_line (start -0.8 0.4) (end 0.8 0.4) (layer B.Fab) (width 0.1))
    (fp_line (start -0.8 -0.4) (end -0.8 0.4) (layer B.Fab) (width 0.1))
    (pad 2 smd roundrect (at 0.7875 0 270) (size 0.875 0.95) (layers Back B.Paste B.Mask) (roundrect_rratio 0.25)
      (net 3 "Net-(C2-Pad2)"))
    (pad 1 smd roundrect (at -0.7875 0 270) (size 0.875 0.95) (layers Back B.Paste B.Mask) (roundrect_rratio 0.25)
      (net 6 "Net-(C4-Pad1)"))
    (model ${KISYS3DMOD}/Capacitor_SMD.3dshapes/C_0603_1608Metric.wrl
      (at (xyz 0 0 0))
      (scale (xyz 1 1 1))
      (rotate (xyz 0 0 0))
    )
  )

  (module Capacitor_SMD:C_0603_1608Metric (layer Back) (tedit 5B301BBE) (tstamp 5E86E3F4)
    (at 123.5 94.5 270)
    (descr "Capacitor SMD 0603 (1608 Metric), square (rectangular) end terminal, IPC_7351 nominal, (Body size source: http://www.tortai-tech.com/upload/download/2011102023233369053.pdf), generated with kicad-footprint-generator")
    (tags capacitor)
    (path /5E86E8DC)
    (attr smd)
    (fp_text reference C3 (at 0 1.43 270) (layer B.SilkS)
      (effects (font (size 1 1) (thickness 0.15)) (justify mirror))
    )
    (fp_text value 47pF (at 0 -1.43 270) (layer B.Fab)
      (effects (font (size 1 1) (thickness 0.15)) (justify mirror))
    )
    (fp_text user %R (at 0 0 270) (layer B.Fab) hide
      (effects (font (size 0.4 0.4) (thickness 0.06)) (justify mirror))
    )
    (fp_line (start 1.48 -0.73) (end -1.48 -0.73) (layer B.CrtYd) (width 0.05))
    (fp_line (start 1.48 0.73) (end 1.48 -0.73) (layer B.CrtYd) (width 0.05))
    (fp_line (start -1.48 0.73) (end 1.48 0.73) (layer B.CrtYd) (width 0.05))
    (fp_line (start -1.48 -0.73) (end -1.48 0.73) (layer B.CrtYd) (width 0.05))
    (fp_line (start -0.162779 -0.51) (end 0.162779 -0.51) (layer B.SilkS) (width 0.12))
    (fp_line (start -0.162779 0.51) (end 0.162779 0.51) (layer B.SilkS) (width 0.12))
    (fp_line (start 0.8 -0.4) (end -0.8 -0.4) (layer B.Fab) (width 0.1))
    (fp_line (start 0.8 0.4) (end 0.8 -0.4) (layer B.Fab) (width 0.1))
    (fp_line (start -0.8 0.4) (end 0.8 0.4) (layer B.Fab) (width 0.1))
    (fp_line (start -0.8 -0.4) (end -0.8 0.4) (layer B.Fab) (width 0.1))
    (pad 2 smd roundrect (at 0.7875 0 270) (size 0.875 0.95) (layers Back B.Paste B.Mask) (roundrect_rratio 0.25)
      (net 3 "Net-(C2-Pad2)"))
    (pad 1 smd roundrect (at -0.7875 0 270) (size 0.875 0.95) (layers Back B.Paste B.Mask) (roundrect_rratio 0.25)
      (net 5 "Net-(C3-Pad1)"))
    (model ${KISYS3DMOD}/Capacitor_SMD.3dshapes/C_0603_1608Metric.wrl
      (at (xyz 0 0 0))
      (scale (xyz 1 1 1))
      (rotate (xyz 0 0 0))
    )
  )

  (module Capacitor_SMD:C_0603_1608Metric (layer Back) (tedit 5B301BBE) (tstamp 5E86E3E3)
    (at 127 104.5 90)
    (descr "Capacitor SMD 0603 (1608 Metric), square (rectangular) end terminal, IPC_7351 nominal, (Body size source: http://www.tortai-tech.com/upload/download/2011102023233369053.pdf), generated with kicad-footprint-generator")
    (tags capacitor)
    (path /5E86E548)
    (attr smd)
    (fp_text reference C2 (at 0 1.43 270) (layer B.SilkS)
      (effects (font (size 1 1) (thickness 0.15)) (justify mirror))
    )
    (fp_text value 10nF (at 0 -1.43 270) (layer B.Fab)
      (effects (font (size 1 1) (thickness 0.15)) (justify mirror))
    )
    (fp_text user %R (at 0 0 270) (layer B.Fab) hide
      (effects (font (size 0.4 0.4) (thickness 0.06)) (justify mirror))
    )
    (fp_line (start 1.48 -0.73) (end -1.48 -0.73) (layer B.CrtYd) (width 0.05))
    (fp_line (start 1.48 0.73) (end 1.48 -0.73) (layer B.CrtYd) (width 0.05))
    (fp_line (start -1.48 0.73) (end 1.48 0.73) (layer B.CrtYd) (width 0.05))
    (fp_line (start -1.48 -0.73) (end -1.48 0.73) (layer B.CrtYd) (width 0.05))
    (fp_line (start -0.162779 -0.51) (end 0.162779 -0.51) (layer B.SilkS) (width 0.12))
    (fp_line (start -0.162779 0.51) (end 0.162779 0.51) (layer B.SilkS) (width 0.12))
    (fp_line (start 0.8 -0.4) (end -0.8 -0.4) (layer B.Fab) (width 0.1))
    (fp_line (start 0.8 0.4) (end 0.8 -0.4) (layer B.Fab) (width 0.1))
    (fp_line (start -0.8 0.4) (end 0.8 0.4) (layer B.Fab) (width 0.1))
    (fp_line (start -0.8 -0.4) (end -0.8 0.4) (layer B.Fab) (width 0.1))
    (pad 2 smd roundrect (at 0.7875 0 90) (size 0.875 0.95) (layers Back B.Paste B.Mask) (roundrect_rratio 0.25)
      (net 3 "Net-(C2-Pad2)"))
    (pad 1 smd roundrect (at -0.7875 0 90) (size 0.875 0.95) (layers Back B.Paste B.Mask) (roundrect_rratio 0.25)
      (net 4 "Net-(C2-Pad1)"))
    (model ${KISYS3DMOD}/Capacitor_SMD.3dshapes/C_0603_1608Metric.wrl
      (at (xyz 0 0 0))
      (scale (xyz 1 1 1))
      (rotate (xyz 0 0 0))
    )
  )

  (module Capacitor_SMD:C_0603_1608Metric (layer Back) (tedit 5B301BBE) (tstamp 5E86E836)
    (at 143 104.5 90)
    (descr "Capacitor SMD 0603 (1608 Metric), square (rectangular) end terminal, IPC_7351 nominal, (Body size source: http://www.tortai-tech.com/upload/download/2011102023233369053.pdf), generated with kicad-footprint-generator")
    (tags capacitor)
    (path /5E86DEF7)
    (attr smd)
    (fp_text reference C1 (at 0 1.43 90) (layer B.SilkS)
      (effects (font (size 1 1) (thickness 0.15)) (justify mirror))
    )
    (fp_text value 10nF (at 0 -1.43 90) (layer B.Fab)
      (effects (font (size 1 1) (thickness 0.15)) (justify mirror))
    )
    (fp_text user %R (at 0 0 90) (layer B.Fab) hide
      (effects (font (size 0.4 0.4) (thickness 0.06)) (justify mirror))
    )
    (fp_line (start 1.48 -0.73) (end -1.48 -0.73) (layer B.CrtYd) (width 0.05))
    (fp_line (start 1.48 0.73) (end 1.48 -0.73) (layer B.CrtYd) (width 0.05))
    (fp_line (start -1.48 0.73) (end 1.48 0.73) (layer B.CrtYd) (width 0.05))
    (fp_line (start -1.48 -0.73) (end -1.48 0.73) (layer B.CrtYd) (width 0.05))
    (fp_line (start -0.162779 -0.51) (end 0.162779 -0.51) (layer B.SilkS) (width 0.12))
    (fp_line (start -0.162779 0.51) (end 0.162779 0.51) (layer B.SilkS) (width 0.12))
    (fp_line (start 0.8 -0.4) (end -0.8 -0.4) (layer B.Fab) (width 0.1))
    (fp_line (start 0.8 0.4) (end 0.8 -0.4) (layer B.Fab) (width 0.1))
    (fp_line (start -0.8 0.4) (end 0.8 0.4) (layer B.Fab) (width 0.1))
    (fp_line (start -0.8 -0.4) (end -0.8 0.4) (layer B.Fab) (width 0.1))
    (pad 2 smd roundrect (at 0.7875 0 90) (size 0.875 0.95) (layers Back B.Paste B.Mask) (roundrect_rratio 0.25)
      (net 1 "Net-(C1-Pad2)"))
    (pad 1 smd roundrect (at -0.7875 0 90) (size 0.875 0.95) (layers Back B.Paste B.Mask) (roundrect_rratio 0.25)
      (net 2 "Net-(C1-Pad1)"))
    (model ${KISYS3DMOD}/Capacitor_SMD.3dshapes/C_0603_1608Metric.wrl
      (at (xyz 0 0 0))
      (scale (xyz 1 1 1))
      (rotate (xyz 0 0 0))
    )
  )

  (gr_text "Battery Connection RB0505\n10096506 Rev A" (at 145 117) (layer F.SilkS)
    (effects (font (size 1.2 1.2) (thickness 0.127)))
  )
  (gr_line (start 120.5 79) (end 163.5 79) (layer Edge.Cuts) (width 0.0381) (tstamp 5E86D5A3))
  (gr_line (start 120.5 94) (end 120.5 79) (layer Edge.Cuts) (width 0.0381))
  (gr_line (start 95.5 94) (end 120.5 94) (layer Edge.Cuts) (width 0.0381))
  (gr_line (start 95.5 124) (end 95.5 94) (layer Edge.Cuts) (width 0.0381))
  (gr_line (start 163.5 124) (end 95.5 124) (layer Edge.Cuts) (width 0.0381))
  (gr_line (start 163.5 79) (end 163.5 124) (layer Edge.Cuts) (width 0.0381))

  (segment (start 138 92.5) (end 137.5237 92.5) (width 2) (layer In1.Cu) (net 1))
  (segment (start 139.54 92.5) (end 138 92.5) (width 2) (layer In1.Cu) (net 1))
  (segment (start 138 101.5) (end 138 92.5) (width 2) (layer In1.Cu) (net 1))
  (segment (start 137 92.5) (end 137.5237 92.5) (width 2) (layer In1.Cu) (net 1))
  (segment (start 137 89.96) (end 137 92.5) (width 2) (layer In1.Cu) (net 1))
  (segment (start 137 89.96) (end 137.5237 89.96) (width 2) (layer In1.Cu) (net 1))
  (segment (start 139.54 89.96) (end 137.5237 89.96) (width 2) (layer In1.Cu) (net 1))
  (segment (start 142.5801 103.2926) (end 142.2653 102.9778) (width 2) (layer Back) (net 1))
  (segment (start 142.2653 102.9778) (end 142.2653 102.9777) (width 2) (layer Back) (net 1))
  (segment (start 142.2653 102.9777) (end 139.4777 102.9777) (width 2) (layer Back) (net 1))
  (segment (start 139.4777 102.9777) (end 138 101.5) (width 2) (layer Back) (net 1))
  (segment (start 142.5801 103.2926) (end 143 103.7125) (width 0.8764) (layer Back) (net 1))
  (segment (start 144.62 89.96) (end 145.1437 89.96) (width 2) (layer In1.Cu) (net 2))
  (segment (start 144.62 89.96) (end 144.62 92.5) (width 2) (layer In1.Cu) (net 2))
  (segment (start 147.16 89.96) (end 145.1437 89.96) (width 2) (layer In1.Cu) (net 2))
  (segment (start 144.62 92.5) (end 145.1437 92.5) (width 2) (layer In1.Cu) (net 2))
  (segment (start 147.16 92.5) (end 145.1437 92.5) (width 2) (layer In1.Cu) (net 2))
  (segment (start 142.5801 105.7074) (end 141.7875 106.5) (width 2) (layer Back) (net 2))
  (segment (start 141.7875 106.5) (end 138 106.5) (width 2) (layer Back) (net 2))
  (segment (start 142.5801 105.7074) (end 143 105.2875) (width 0.8764) (layer Back) (net 2))
  (segment (start 144.62 92.5) (end 144.62 99.88) (width 2) (layer In1.Cu) (net 2))
  (segment (start 144.62 99.88) (end 138 106.5) (width 2) (layer In1.Cu) (net 2))
  (segment (start 126.9839 95.3036) (end 127 95.2875) (width 0.8764) (layer Back) (net 3))
  (segment (start 123.5 95.3036) (end 126.9839 95.3036) (width 2) (layer Back) (net 3))
  (segment (start 123.5 95.3036) (end 123.5 95.2875) (width 0.8764) (layer Back) (net 3))
  (segment (start 127.4199 95.7074) (end 127 95.2875) (width 0.8764) (layer Back) (net 3))
  (segment (start 127.4199 103.2926) (end 127 103.7125) (width 0.8764) (layer Back) (net 3))
  (segment (start 129.2125 101.5) (end 127.4199 103.2926) (width 2) (layer Back) (net 3))
  (segment (start 129.2125 101.5) (end 129.2125 97.5) (width 2) (layer Back) (net 3))
  (segment (start 129.2125 97.5) (end 127.4199 95.7074) (width 2) (layer Back) (net 3))
  (segment (start 133 101.5) (end 129.2125 101.5) (width 2) (layer Back) (net 3))
  (segment (start 108.7 115) (end 114.7 109) (width 2) (layer In2.Cu) (net 3))
  (segment (start 114.7 109) (end 135.5 109) (width 2) (layer In2.Cu) (net 3))
  (segment (start 133 101.5) (end 135.5 104) (width 2) (layer In1.Cu) (net 3))
  (segment (start 135.5 104) (end 135.5 109) (width 2) (layer In1.Cu) (net 3))
  (segment (start 127.1885 105.4759) (end 127 105.2875) (width 0.8764) (layer Back) (net 4))
  (segment (start 127.3015 105.589) (end 127.1885 105.4759) (width 0.8764) (layer Back) (net 4))
  (segment (start 127.1885 105.4759) (end 114.4653 118.1991) (width 2) (layer Back) (net 4))
  (segment (start 114.4653 118.1991) (end 107.3944 118.1991) (width 2) (layer Back) (net 4))
  (segment (start 107.3944 118.1991) (end 104.8549 115.6596) (width 2) (layer Back) (net 4))
  (segment (start 104.8549 115.6596) (end 104.8549 105.5751) (width 2) (layer Back) (net 4))
  (segment (start 104.8549 105.5751) (end 107.43 103) (width 2) (layer Back) (net 4))
  (segment (start 127.406 105.4845) (end 127.3015 105.589) (width 2) (layer Back) (net 4))
  (segment (start 127.5242 105.6027) (end 127.406 105.4845) (width 0.8764) (layer Back) (net 4))
  (segment (start 127.5242 105.6027) (end 128.4215 106.5) (width 2) (layer Back) (net 4))
  (segment (start 128.4215 106.5) (end 133 106.5) (width 2) (layer Back) (net 4))
  (segment (start 109.97 103) (end 107.43 103) (width 2) (layer Back) (net 4))
  (segment (start 123.5 93.7125) (end 123.2575 93.7125) (width 0.254) (layer Back) (net 5))
  (segment (start 123.2575 93.7125) (end 109.97 107) (width 0.254) (layer Back) (net 5))
  (segment (start 123.5 89.7875) (end 123.5 93.7125) (width 0.254) (layer Back) (net 5))
  (segment (start 107.43 107) (end 109.97 107) (width 0.254) (layer Back) (net 5))
  (segment (start 109.97 111) (end 107.43 111) (width 0.254) (layer Back) (net 6))
  (segment (start 127 89.7875) (end 126.2703 89.0578) (width 0.254) (layer Back) (net 6))
  (segment (start 126.2703 89.0578) (end 123.0346 89.0578) (width 0.254) (layer Back) (net 6))
  (segment (start 123.0346 89.0578) (end 122.3284 89.764) (width 0.254) (layer Back) (net 6))
  (segment (start 122.3284 89.764) (end 122.3284 93.0673) (width 0.254) (layer Back) (net 6))
  (segment (start 122.3284 93.0673) (end 110.5396 104.8561) (width 0.254) (layer Back) (net 6))
  (segment (start 110.5396 104.8561) (end 107.7465 104.8561) (width 0.254) (layer Back) (net 6))
  (segment (start 107.7465 104.8561) (end 106.1389 106.4637) (width 0.254) (layer Back) (net 6))
  (segment (start 106.1389 106.4637) (end 106.1389 109.7089) (width 0.254) (layer Back) (net 6))
  (segment (start 106.1389 109.7089) (end 107.43 111) (width 0.254) (layer Back) (net 6))
  (segment (start 127 89.7875) (end 127 93.7125) (width 0.254) (layer Back) (net 6))
  (segment (start 142.08 92.5) (end 140.9367 92.5) (width 0.254) (layer Back) (net 7))
  (segment (start 127 88.2125) (end 130.0175 91.23) (width 0.254) (layer Back) (net 7))
  (segment (start 130.0175 91.23) (end 139.9036 91.23) (width 0.254) (layer Back) (net 7))
  (segment (start 139.9036 91.23) (end 140.9367 92.2631) (width 0.254) (layer Back) (net 7))
  (segment (start 140.9367 92.2631) (end 140.9367 92.5) (width 0.254) (layer Back) (net 7))
  (segment (start 142.08 89.96) (end 140.9367 89.96) (width 0.254) (layer Back) (net 8))
  (segment (start 123.5 88.2125) (end 124.2749 87.4376) (width 0.254) (layer Back) (net 8))
  (segment (start 124.2749 87.4376) (end 138.6512 87.4376) (width 0.254) (layer Back) (net 8))
  (segment (start 138.6512 87.4376) (end 140.9367 89.7231) (width 0.254) (layer Back) (net 8))
  (segment (start 140.9367 89.7231) (end 140.9367 89.96) (width 0.254) (layer Back) (net 8))

  (zone (net 0) (net_name "") (layers F&B.Cu) (tstamp 0) (hatch full 0.508)
    (connect_pads (clearance 0.508))
    (min_thickness 0.254)
    (keepout (tracks not_allowed) (vias not_allowed) (copperpour not_allowed))
    (fill (arc_segments 32) (thermal_gap 0.508) (thermal_bridge_width 0.508))
    (polygon
      (pts
        (xy 95.5 124) (xy 99.5 124) (xy 99.5 115.5) (xy 95.5 115.5)
      )
    )
  )
  (zone (net 0) (net_name "") (layers F&B.Cu) (tstamp 0) (hatch full 0.508)
    (connect_pads (clearance 0.508))
    (min_thickness 0.254)
    (keepout (tracks not_allowed) (vias not_allowed) (copperpour not_allowed))
    (fill (arc_segments 32) (thermal_gap 0.508) (thermal_bridge_width 0.508))
    (polygon
      (pts
        (xy 159.5 124) (xy 163.5 124) (xy 163.5 115.5) (xy 159.5 115.5)
      )
    )
  )
  (zone (net 0) (net_name "") (layers F&B.Cu) (tstamp 0) (hatch full 0.508)
    (connect_pads (clearance 0.508))
    (min_thickness 0.254)
    (keepout (tracks not_allowed) (vias not_allowed) (copperpour not_allowed))
    (fill (arc_segments 32) (thermal_gap 0.508) (thermal_bridge_width 0.508))
    (polygon
      (pts
        (xy 102.5 100) (xy 115 100) (xy 115 94) (xy 102.5 94)
      )
    )
  )
)
