PCBNEW-LibModule-V1  2020-04-03 12:22:03
# encoding utf-8
Units mm
$INDEX
811S100230014101
$EndINDEX
$MODULE 811S100230014101
Po 0 0 0 15 5e871c5b 00000000 ~~
Li 811S100230014101
Cd 811-S1-002-30-014101-2
Kw Connector
Sc 0
At SMD
AR 
Op 0 0 0
T0 0.000 0.29 1.27 1.27 0 0.254 N V 21 N "J**"
T1 0.000 0.29 1.27 1.27 0 0.254 N I 21 N "811S100230014101"
DS -2.54 1.27 2.54 1.27 0.2 24
DS 2.54 1.27 2.54 -1.27 0.2 24
DS 2.54 -1.27 -2.54 -1.27 0.2 24
DS -2.54 -1.27 -2.54 1.27 0.2 24
DS -2.54 -1.27 2.54 -1.27 0.1 21
DS 2.54 -1.27 2.54 1.27 0.1 21
DS 2.54 1.27 -2.54 1.27 0.1 21
DS -2.54 1.27 -2.54 -1.27 0.1 21
DS -3.54 -2.27 3.54 -2.27 0.1 24
DS 3.54 -2.27 3.54 2.85 0.1 24
DS 3.54 2.85 -3.54 2.85 0.1 24
DS -3.54 2.85 -3.54 -2.27 0.1 24
DS -1.4 1.8 -1.4 1.8 0.2 21
DS -1.3 1.8 -1.3 1.8 0.2 21
DS -1.4 1.8 -1.4 1.8 0.2 21
DA -1.35 1.8 -1.400 1.8 -1800 0.2 21
DA -1.35 1.8 -1.300 1.8 -1800 0.2 21
DA -1.35 1.8 -1.400 1.8 -1800 0.2 21
$PAD
Po -1.270 -0
Sh "1" C 2.000 2.000 0 0 900
At SMD N 00888000
Ne 0 ""
$EndPAD
$PAD
Po 1.270 -0
Sh "2" C 2.000 2.000 0 0 900
At SMD N 00888000
Ne 0 ""
$EndPAD
$EndMODULE 811S100230014101
$EndLIBRARY
