EESchema Schematic File Version 5
EELAYER 33 0
EELAYER END
$Descr A4 11693 8268
encoding utf-8
Sheet 2 3
Title ""
Date ""
Rev ""
Comp ""
Comment1 ""
Comment2 ""
Comment3 ""
Comment4 ""
Comment5 ""
Comment6 ""
Comment7 ""
Comment8 ""
Comment9 ""
$EndDescr
Connection ~ 7650 4900
Connection ~ 8100 4700
Connection ~ 3450 6000
Connection ~ 3450 5900
Connection ~ 1500 6950
Connection ~ 1500 6850
Connection ~ 5100 5750
Connection ~ 5600 4750
Connection ~ 5400 4750
Connection ~ 5400 5750
Connection ~ 4800 4750
Connection ~ 4800 5750
Connection ~ 5600 5750
Connection ~ 4600 4750
Connection ~ 2450 1300
Connection ~ 2600 1400
Connection ~ 1150 1850
Connection ~ 1350 1850
Connection ~ 1650 1850
Connection ~ 1850 1850
Connection ~ 1150 2850
Connection ~ 1350 2850
Connection ~ 1650 2850
Connection ~ 1850 2850
Connection ~ 1500 1850
Connection ~ 1500 2850
NoConn ~ 3500 6400
NoConn ~ 3500 6500
NoConn ~ 3500 6600
NoConn ~ 2600 6750
NoConn ~ 2600 6850
NoConn ~ 2600 6950
NoConn ~ 3800 3050
NoConn ~ 3800 3150
NoConn ~ 3800 1850
Entry Wire Line
	1400 4600 1500 4700
Entry Wire Line
	1400 4700 1500 4800
Entry Wire Line
	1400 4800 1500 4900
Entry Wire Line
	1400 4900 1500 5000
Entry Wire Line
	1400 5000 1500 5100
Entry Wire Line
	1400 5100 1500 5200
Entry Wire Line
	1400 5200 1500 5300
Entry Wire Line
	1400 5300 1500 5400
Entry Wire Line
	2350 1750 2450 1650
Entry Wire Line
	2350 1850 2450 1750
Entry Wire Line
	2350 1950 2450 1850
Entry Wire Line
	2350 2050 2450 1950
Entry Wire Line
	2350 2150 2450 2050
Entry Wire Line
	2350 2250 2450 2150
Entry Wire Line
	2350 2350 2450 2250
Entry Wire Line
	2350 2450 2450 2350
Entry Wire Line
	2350 2550 2450 2450
Entry Wire Line
	2350 2650 2450 2550
Entry Wire Line
	2350 2750 2450 2650
Entry Wire Line
	2350 2850 2450 2750
Entry Wire Line
	2350 2950 2450 2850
Entry Wire Line
	2350 3050 2450 2950
Entry Wire Line
	2350 3150 2450 3050
Entry Wire Line
	2350 3250 2450 3150
Wire Wire Line
	850  1850 1150 1850
Wire Wire Line
	850  2850 1150 2850
Wire Wire Line
	1000 6350 1600 6350
Wire Wire Line
	1000 6450 1600 6450
Wire Wire Line
	1000 6550 1600 6550
Wire Wire Line
	1000 6650 1600 6650
Wire Wire Line
	1050 1100 1100 1100
Wire Wire Line
	1050 1300 1750 1300
Wire Wire Line
	1150 1850 1350 1850
Wire Wire Line
	1150 2250 1150 1850
Wire Wire Line
	1150 2450 1150 2850
Wire Wire Line
	1150 2850 1350 2850
Wire Wire Line
	1350 1850 1500 1850
Wire Wire Line
	1350 2850 1500 2850
Wire Wire Line
	1400 5800 1400 6250
Wire Wire Line
	1400 6250 1600 6250
Wire Wire Line
	1500 1800 1500 1850
Wire Wire Line
	1500 1850 1650 1850
Wire Wire Line
	1500 2850 1500 2900
Wire Wire Line
	1500 2850 1650 2850
Wire Wire Line
	1500 4700 1600 4700
Wire Wire Line
	1500 4800 1600 4800
Wire Wire Line
	1500 4900 1600 4900
Wire Wire Line
	1500 5000 1600 5000
Wire Wire Line
	1500 5100 1600 5100
Wire Wire Line
	1500 5200 1600 5200
Wire Wire Line
	1500 5300 1600 5300
Wire Wire Line
	1500 5400 1600 5400
Wire Wire Line
	1500 6050 1600 6050
Wire Wire Line
	1500 6100 1500 6050
Wire Wire Line
	1500 6750 1500 6850
Wire Wire Line
	1500 6850 1500 6950
Wire Wire Line
	1500 6850 1600 6850
Wire Wire Line
	1500 6950 1500 7000
Wire Wire Line
	1500 6950 1600 6950
Wire Wire Line
	1600 4500 1400 4500
Wire Wire Line
	1600 6750 1500 6750
Wire Wire Line
	1650 1850 1850 1850
Wire Wire Line
	1650 2250 1650 1850
Wire Wire Line
	1650 2450 1650 2850
Wire Wire Line
	1650 2850 1850 2850
Wire Wire Line
	1700 1100 1750 1100
Wire Wire Line
	1850 1850 2150 1850
Wire Wire Line
	1850 2850 2150 2850
Wire Wire Line
	2150 2250 2150 1850
Wire Wire Line
	2150 2450 2150 2850
Wire Wire Line
	2350 1400 2350 1450
Wire Wire Line
	2450 1200 2350 1200
Wire Wire Line
	2450 1200 2450 1300
Wire Wire Line
	2450 1300 2700 1300
Wire Wire Line
	2450 1500 2450 1300
Wire Wire Line
	2450 1650 2700 1650
Wire Wire Line
	2450 1750 2700 1750
Wire Wire Line
	2450 1850 2700 1850
Wire Wire Line
	2450 1950 2700 1950
Wire Wire Line
	2450 2050 2700 2050
Wire Wire Line
	2450 2150 2700 2150
Wire Wire Line
	2450 2250 2700 2250
Wire Wire Line
	2450 2350 2700 2350
Wire Wire Line
	2450 2450 2700 2450
Wire Wire Line
	2450 2550 2700 2550
Wire Wire Line
	2450 2650 2700 2650
Wire Wire Line
	2450 2750 2700 2750
Wire Wire Line
	2450 2850 2700 2850
Wire Wire Line
	2450 2950 2700 2950
Wire Wire Line
	2450 3050 2700 3050
Wire Wire Line
	2450 3150 2700 3150
Wire Wire Line
	2600 1200 2700 1200
Wire Wire Line
	2600 1400 2350 1400
Wire Wire Line
	2600 1400 2600 1200
Wire Wire Line
	2600 4500 2800 4500
Wire Wire Line
	2600 4700 3500 4700
Wire Wire Line
	2600 4800 3500 4800
Wire Wire Line
	2600 4900 3500 4900
Wire Wire Line
	2600 5000 3500 5000
Wire Wire Line
	2600 5100 3500 5100
Wire Wire Line
	2600 5200 3500 5200
Wire Wire Line
	2600 5300 3500 5300
Wire Wire Line
	2600 5400 3500 5400
Wire Wire Line
	2600 6250 3150 6250
Wire Wire Line
	2600 6450 3150 6450
Wire Wire Line
	2700 1400 2600 1400
Wire Wire Line
	2700 1500 2450 1500
Wire Wire Line
	2700 6050 2600 6050
Wire Wire Line
	2700 6100 2700 6050
Wire Wire Line
	2950 6650 2600 6650
Wire Wire Line
	2950 6650 2950 7200
Wire Wire Line
	2950 7200 3500 7200
Wire Wire Line
	3050 6550 2600 6550
Wire Wire Line
	3050 6550 3050 7100
Wire Wire Line
	3050 7100 3500 7100
Wire Wire Line
	3150 5700 3150 6250
Wire Wire Line
	3150 6450 3150 7000
Wire Wire Line
	3150 7000 3500 7000
Wire Wire Line
	3250 5950 3250 6000
Wire Wire Line
	3250 6350 2600 6350
Wire Wire Line
	3250 6900 3250 6350
Wire Wire Line
	3250 6900 3500 6900
Wire Wire Line
	3400 7450 3400 7500
Wire Wire Line
	3450 5800 3450 5900
Wire Wire Line
	3450 5900 3450 6000
Wire Wire Line
	3450 5900 3500 5900
Wire Wire Line
	3450 6000 3250 6000
Wire Wire Line
	3500 5700 3150 5700
Wire Wire Line
	3500 5800 3450 5800
Wire Wire Line
	3500 6000 3450 6000
Wire Wire Line
	3500 7500 3400 7500
Wire Wire Line
	3800 1650 3900 1650
Wire Wire Line
	3800 1750 3900 1750
Wire Wire Line
	3800 1950 3900 1950
Wire Wire Line
	3800 2050 3900 2050
Wire Wire Line
	3800 2150 3900 2150
Wire Wire Line
	3800 2250 3900 2250
Wire Wire Line
	3800 2350 3900 2350
Wire Wire Line
	3800 2450 3900 2450
Wire Wire Line
	3800 2550 3900 2550
Wire Wire Line
	3800 2650 3900 2650
Wire Wire Line
	3800 2750 3900 2750
Wire Wire Line
	3800 2850 3900 2850
Wire Wire Line
	3800 2950 3900 2950
Wire Wire Line
	4600 5750 4800 5750
Wire Wire Line
	4800 4750 4600 4750
Wire Wire Line
	4800 5150 4800 4750
Wire Wire Line
	4800 5350 4800 5750
Wire Wire Line
	4800 5750 5100 5750
Wire Wire Line
	5000 4750 4800 4750
Wire Wire Line
	5000 4850 5000 4750
Wire Wire Line
	5100 5650 5100 5750
Wire Wire Line
	5100 5750 5400 5750
Wire Wire Line
	5200 4750 5400 4750
Wire Wire Line
	5200 4850 5200 4750
Wire Wire Line
	5400 4750 5600 4750
Wire Wire Line
	5400 5150 5400 4750
Wire Wire Line
	5400 5350 5400 5750
Wire Wire Line
	5400 5750 5600 5750
Wire Wire Line
	5600 5750 5950 5750
Wire Wire Line
	5950 4750 5600 4750
Wire Wire Line
	5950 5150 5950 4750
Wire Wire Line
	5950 5350 5950 5750
Wire Wire Line
	7650 4700 8100 4700
Wire Wire Line
	7650 4900 7650 4700
Wire Wire Line
	7650 4900 7700 4900
Wire Wire Line
	7650 5000 7650 4900
Wire Wire Line
	7700 5000 7650 5000
Wire Wire Line
	8100 5300 8100 5400
Wire Wire Line
	9150 4700 9150 4750
Wire Wire Line
	9150 4950 9150 5000
Wire Bus Line
	1050 4600 1400 4600
Wire Bus Line
	1400 4600 1400 4800
Wire Bus Line
	1400 4800 1400 5000
Wire Bus Line
	1400 5000 1400 5200
Wire Bus Line
	1400 5200 1400 5300
Wire Bus Line
	1550 3250 2350 3250
Wire Bus Line
	2350 1750 2350 1850
Wire Bus Line
	2350 1850 2350 2050
Wire Bus Line
	2350 2050 2350 2250
Wire Bus Line
	2350 2250 2350 2350
Wire Bus Line
	2350 2350 2350 2550
Wire Bus Line
	2350 2550 2350 2750
Wire Bus Line
	2350 2750 2350 2950
Wire Bus Line
	2350 2950 2350 3150
Wire Bus Line
	2350 3150 2350 3250
Wire Notes Line
	7050 4250 7050 5650
Wire Notes Line
	7050 4250 9550 4250
Wire Notes Line
	7050 5650 9550 5650
Wire Notes Line
	7950 850  7950 3500
Wire Notes Line
	7950 850  10300 850 
Wire Notes Line
	7950 3500 10300 3500
Wire Notes Line
	9550 5650 9550 4250
Wire Notes Line
	10300 850  10300 3500
Text Notes 2300 4150 2    50   ~ 10
MONITORING MEMORY
Text Notes 7750 4350 2    50   ~ 0
SETTINGS MEMORY
Text Notes 8800 950  2    50   ~ 0
FLASH EVENT MEMORY
Text Notes 9500 1500 2    50   ~ 0
S29AL008J70BFI020
Text Label 1400 4500 0    50   ~ 0
1~OE
Text Label 1500 4800 0    50   ~ 0
D1
Text Label 1500 4900 0    50   ~ 0
D2
Text Label 1500 5000 0    50   ~ 0
D3
Text Label 1500 5100 0    50   ~ 0
D4
Text Label 1500 5200 0    50   ~ 0
D5
Text Label 1500 5300 0    50   ~ 0
D6
Text Label 1500 5400 0    50   ~ 0
D7
Text Label 1600 4700 2    50   ~ 0
D0
Text Label 2700 1650 2    50   ~ 0
D0
Text Label 2700 1750 2    50   ~ 0
D1
Text Label 2700 1850 2    50   ~ 0
D2
Text Label 2700 1950 2    50   ~ 0
D3
Text Label 2700 2050 2    50   ~ 0
D4
Text Label 2700 2150 2    50   ~ 0
D5
Text Label 2700 2250 2    50   ~ 0
D6
Text Label 2700 2350 2    50   ~ 0
D7
Text Label 2700 2450 2    50   ~ 0
D8
Text Label 2700 2550 2    50   ~ 0
D9
Text Label 2700 2650 2    50   ~ 0
D10
Text Label 2700 2750 2    50   ~ 0
D11
Text Label 2700 2850 2    50   ~ 0
D12
Text Label 2700 2950 2    50   ~ 0
D13
Text Label 2700 3050 2    50   ~ 0
D14
Text Label 2700 3150 2    50   ~ 0
D15
Text Label 2800 4500 2    50   ~ 0
1DIR
Text Label 2800 6250 0    50   ~ 0
1~OE
Text Label 2800 6450 0    50   ~ 0
1DIR
Text HLabel 800  5700 0    50   Input ~ 0
CS0
Text HLabel 800  5900 0    50   Input ~ 0
A23
Text HLabel 1000 6350 0    50   Input ~ 0
RD
Text HLabel 1000 6450 0    50   Input ~ 0
WR
Text HLabel 1000 6550 0    50   Input ~ 0
CMD_ALE1
Text HLabel 1000 6650 0    50   Input ~ 0
CMD_LE1
Text HLabel 1050 1100 0    50   Input ~ 0
WR{slash}
Text HLabel 1050 1300 0    50   Input ~ 0
A23
Text HLabel 1050 4600 0    50   Input ~ 0
D[0..7]
Text HLabel 1550 3250 0    50   Input ~ 0
D[0..15]
Text HLabel 3500 6300 0    50   Input ~ 0
BUSY-ME1
Text HLabel 3900 1650 2    50   Output ~ 0
LED-VENTIL
Text HLabel 3900 1750 2    50   Output ~ 0
LED_O2
Text HLabel 3900 1950 2    50   Output ~ 0
CE{slash}-EEP
Text HLabel 3900 2050 2    50   Output ~ 0
CE-RTC1
Text HLabel 3900 2150 2    50   Output ~ 0
CE{slash}-RTC2
Text HLabel 3900 2250 2    50   Output ~ 0
CE{slash}-INT-PRES-SENS
Text HLabel 3900 2350 2    50   Output ~ 0
CE{slash}-PROX-PRES-SENS
Text HLabel 3900 2450 2    50   Output ~ 0
CE{slash}-VALV-PRES-SENS
Text HLabel 3900 2550 2    50   Output ~ 0
CI-SPI-USB
Text HLabel 3900 2650 2    50   Output ~ 0
CE-SPI-PIC
Text HLabel 3900 2750 2    50   Output ~ 0
CE{slash}-FLOW-INSP-SENS
Text HLabel 3900 2850 2    50   Output ~ 0
CE{slash}-FLOW-EXP-SENS
Text HLabel 3900 2950 2    50   Output ~ 0
CE-SPI-PIC-IC44
Text HLabel 7700 5100 0    50   Input ~ 0
CE{slash}-EEP
Text HLabel 8500 4900 2    50   Input ~ 0
MTSR_SPI-0
Text HLabel 8500 5000 2    50   Output ~ 0
MRST-SPI-0
Text HLabel 8500 5100 2    50   Input ~ 0
SCLK-SPI-0
$Comp
L power:+5V #PWR?
U 1 1 5E98E6A3
P 1500 1800
F 0 "#PWR?" H 1500 1650 50  0001 C CNN
F 1 "+5V" H 1515 1973 50  0000 C CNN
F 2 "" H 1500 1800 50  0001 C CNN
F 3 "" H 1500 1800 50  0001 C CNN
	1    1500 1800
	1    0    0    -1  
$EndComp
$Comp
L power:+3V3 #PWR?
U 1 1 5E8E5BCF
P 3250 5950
F 0 "#PWR?" H 3250 5800 50  0001 C CNN
F 1 "+3V3" H 3265 6123 50  0000 C CNN
F 2 "" H 3250 5950 50  0001 C CNN
F 3 "" H 3250 5950 50  0001 C CNN
	1    3250 5950
	1    0    0    -1  
$EndComp
$Comp
L power:+3V3 #PWR?
U 1 1 5E8E4A43
P 3400 7450
F 0 "#PWR?" H 3400 7300 50  0001 C CNN
F 1 "+3V3" H 3415 7623 50  0000 C CNN
F 2 "" H 3400 7450 50  0001 C CNN
F 3 "" H 3400 7450 50  0001 C CNN
	1    3400 7450
	1    0    0    -1  
$EndComp
$Comp
L power:+5V #PWR?
U 1 1 5E8F7ACC
P 4600 4750
F 0 "#PWR?" H 4600 4600 50  0001 C CNN
F 1 "+5V" H 4615 4923 50  0000 C CNN
F 2 "" H 4600 4750 50  0001 C CNN
F 3 "" H 4600 4750 50  0001 C CNN
	1    4600 4750
	1    0    0    -1  
$EndComp
$Comp
L power:+3V3 #PWR?
U 1 1 5E8F7CE9
P 5600 4750
F 0 "#PWR?" H 5600 4600 50  0001 C CNN
F 1 "+3V3" H 5615 4923 50  0000 C CNN
F 2 "" H 5600 4750 50  0001 C CNN
F 3 "" H 5600 4750 50  0001 C CNN
	1    5600 4750
	1    0    0    -1  
$EndComp
$Comp
L power:+5V #PWR?
U 1 1 5E8CFBC3
P 8100 4700
F 0 "#PWR?" H 8100 4550 50  0001 C CNN
F 1 "+5V" H 8115 4873 50  0000 C CNN
F 2 "" H 8100 4700 50  0001 C CNN
F 3 "" H 8100 4700 50  0001 C CNN
	1    8100 4700
	1    0    0    -1  
$EndComp
$Comp
L power:+5V #PWR?
U 1 1 5E8D0FA5
P 9150 4700
F 0 "#PWR?" H 9150 4550 50  0001 C CNN
F 1 "+5V" H 9165 4873 50  0000 C CNN
F 2 "" H 9150 4700 50  0001 C CNN
F 3 "" H 9150 4700 50  0001 C CNN
	1    9150 4700
	1    0    0    -1  
$EndComp
$Comp
L power:GND #PWR?
U 1 1 5E99086E
P 1500 2900
F 0 "#PWR?" H 1500 2650 50  0001 C CNN
F 1 "GND" H 1505 2727 50  0000 C CNN
F 2 "" H 1500 2900 50  0001 C CNN
F 3 "" H 1500 2900 50  0001 C CNN
	1    1500 2900
	1    0    0    -1  
$EndComp
$Comp
L power:GND #PWR?
U 1 1 5E8DF177
P 1500 6100
F 0 "#PWR?" H 1500 5850 50  0001 C CNN
F 1 "GND" H 1500 6200 50  0000 C CNN
F 2 "" H 1500 6100 50  0001 C CNN
F 3 "" H 1500 6100 50  0001 C CNN
	1    1500 6100
	1    0    0    -1  
$EndComp
$Comp
L power:GND #PWR?
U 1 1 5E8EA801
P 1500 7000
F 0 "#PWR?" H 1500 6750 50  0001 C CNN
F 1 "GND" H 1505 6827 50  0000 C CNN
F 2 "" H 1500 7000 50  0001 C CNN
F 3 "" H 1500 7000 50  0001 C CNN
	1    1500 7000
	1    0    0    -1  
$EndComp
$Comp
L power:GND #PWR?
U 1 1 5E96DB5B
P 2350 1450
F 0 "#PWR?" H 2350 1200 50  0001 C CNN
F 1 "GND" H 2355 1277 50  0000 C CNN
F 2 "" H 2350 1450 50  0001 C CNN
F 3 "" H 2350 1450 50  0001 C CNN
	1    2350 1450
	1    0    0    -1  
$EndComp
$Comp
L power:GND #PWR?
U 1 1 5E8DFC14
P 2700 6100
F 0 "#PWR?" H 2700 5850 50  0001 C CNN
F 1 "GND" H 2700 6200 50  0000 C CNN
F 2 "" H 2700 6100 50  0001 C CNN
F 3 "" H 2700 6100 50  0001 C CNN
	1    2700 6100
	-1   0    0    -1  
$EndComp
$Comp
L power:GND #PWR?
U 1 1 5E8F706B
P 5100 5750
F 0 "#PWR?" H 5100 5500 50  0001 C CNN
F 1 "GND" H 5105 5577 50  0000 C CNN
F 2 "" H 5100 5750 50  0001 C CNN
F 3 "" H 5100 5750 50  0001 C CNN
	1    5100 5750
	1    0    0    -1  
$EndComp
$Comp
L power:GND #PWR?
U 1 1 5E8D0147
P 8100 5400
F 0 "#PWR?" H 8100 5150 50  0001 C CNN
F 1 "GND" H 8105 5227 50  0000 C CNN
F 2 "" H 8100 5400 50  0001 C CNN
F 3 "" H 8100 5400 50  0001 C CNN
	1    8100 5400
	1    0    0    -1  
$EndComp
$Comp
L power:GND #PWR?
U 1 1 5E8D1DBA
P 9150 5000
F 0 "#PWR?" H 9150 4750 50  0001 C CNN
F 1 "GND" H 9155 4827 50  0000 C CNN
F 2 "" H 9150 5000 50  0001 C CNN
F 3 "" H 9150 5000 50  0001 C CNN
	1    9150 5000
	1    0    0    -1  
$EndComp
$Comp
L Device:C_Small C?
U 1 1 5E989038
P 1150 2350
F 0 "C?" V 1200 2450 50  0000 L CNN
F 1 "0u1F" V 1200 2100 50  0000 L CNN
F 2 "" H 1150 2350 50  0001 C CNN
F 3 "~" H 1150 2350 50  0001 C CNN
	1    1150 2350
	1    0    0    -1  
$EndComp
$Comp
L Device:C_Small C?
U 1 1 5E9858D3
P 1650 2350
F 0 "C?" V 1700 2450 50  0000 L CNN
F 1 "0u1F" V 1700 2100 50  0000 L CNN
F 2 "" H 1650 2350 50  0001 C CNN
F 3 "~" H 1650 2350 50  0001 C CNN
	1    1650 2350
	1    0    0    -1  
$EndComp
$Comp
L Device:C_Small C?
U 1 1 5E98424A
P 2150 2350
F 0 "C?" V 2200 2450 50  0000 L CNN
F 1 "0u1F" V 2200 2100 50  0000 L CNN
F 2 "" H 2150 2350 50  0001 C CNN
F 3 "~" H 2150 2350 50  0001 C CNN
	1    2150 2350
	1    0    0    -1  
$EndComp
$Comp
L Device:C_Small C?
U 1 1 5E905574
P 4800 5250
F 0 "C?" V 4850 5350 50  0000 L CNN
F 1 "0u1F" V 4850 5000 50  0000 L CNN
F 2 "" H 4800 5250 50  0001 C CNN
F 3 "~" H 4800 5250 50  0001 C CNN
	1    4800 5250
	1    0    0    -1  
$EndComp
$Comp
L Device:C_Small C?
U 1 1 5E904E61
P 5400 5250
F 0 "C?" V 5450 5350 50  0000 L CNN
F 1 "0u1F" V 5450 5000 50  0000 L CNN
F 2 "" H 5400 5250 50  0001 C CNN
F 3 "~" H 5400 5250 50  0001 C CNN
	1    5400 5250
	1    0    0    -1  
$EndComp
$Comp
L Device:C_Small C?
U 1 1 5E8FEBC6
P 5950 5250
F 0 "C?" V 6000 5350 50  0000 L CNN
F 1 "0u1F" V 6000 5000 50  0000 L CNN
F 2 "" H 5950 5250 50  0001 C CNN
F 3 "~" H 5950 5250 50  0001 C CNN
	1    5950 5250
	1    0    0    -1  
$EndComp
$Comp
L Device:C_Small C?
U 1 1 5E8D24C5
P 9150 4850
F 0 "C?" H 9242 4895 50  0000 L CNN
F 1 "0u1F" H 9241 4805 50  0000 L CNN
F 2 "" H 9150 4850 50  0001 C CNN
F 3 "~" H 9150 4850 50  0001 C CNN
	1    9150 4850
	1    0    0    -1  
$EndComp
$Comp
L CPU_RB0505:74AHCT1G04 U?
U 1 1 5E95C24C
P 1400 1100
F 0 "U?" H 1400 1416 50  0000 C CNN
F 1 "74AHCT1G04" H 1400 1325 50  0000 C CNN
F 2 "Package_TO_SOT_SMD:SOT-353_SC-70-5" H 1400 1100 50  0001 C CNN
F 3 "" H 1400 1100 50  0001 C CNN
	1    1400 1100
	1    0    0    -1  
$EndComp
$Comp
L CPU_RB0505:74HCT1G32GW U?
U 1 1 5E8D7E12
P 1100 5800
F 0 "U?" H 1100 6123 50  0000 C CNN
F 1 "GD9FU1G8F2AMGI" H 1100 6032 50  0000 C CNN
F 2 "Package_SO:TSOP-I-48_18.4x12mm_P0.5mm" H 1100 5800 50  0001 C CNN
F 3 "" H 1100 5800 50  0001 C CNN
	1    1100 5800
	1    0    0    -1  
$EndComp
$Comp
L CPU_RB0505:74AHCT1G08 U?
U 1 1 5E9614FD
P 2050 1200
F 0 "U?" H 2050 1523 50  0000 C CNN
F 1 "74AHCT1G08" H 2050 1432 50  0000 C CNN
F 2 "Package_TO_SOT_SMD:SOT-23-5" H 2050 1200 50  0001 C CNN
F 3 "" H 2050 1200 50  0001 C CNN
	1    2050 1200
	1    0    0    -1  
$EndComp
$Comp
L CPU_RB0505:74ACT16373 U?
U 2 1 5E9537E0
P 1350 2350
F 0 "U?" H 1450 2750 50  0000 C CNN
F 1 "74ACT16373" V 1500 2350 50  0000 C CNN
F 2 "" H 1350 2250 50  0001 C CNN
F 3 "" H 1350 2250 50  0001 C CNN
	2    1350 2350
	1    0    0    -1  
$EndComp
$Comp
L CPU_RB0505:GD9FU1G8F2AMGI U?
U 2 1 5E8F2CCF
P 5600 5250
F 0 "U?" H 5650 5650 50  0000 L CNN
F 1 "GD9FU1G8F2AMGI" V 5800 4900 50  0000 L CNN
F 2 "Package_SO:TSOP-I-48_18.4x12mm_P0.5mm" H 5000 6300 50  0001 C CNN
F 3 "" H 5000 6300 50  0001 C CNN
	2    5600 5250
	1    0    0    -1  
$EndComp
$Comp
L CPU_RB0505:74AHCT1G08 U?
U 2 1 5E96165B
P 850 2300
F 0 "U?" H 950 2650 50  0000 C CNN
F 1 "74AHCT1G08" V 1000 2250 50  0000 C CNN
F 2 "Package_TO_SOT_SMD:SOT-23-5" H 850 2300 50  0001 C CNN
F 3 "" H 850 2300 50  0001 C CNN
	2    850  2300
	1    0    0    -1  
$EndComp
$Comp
L CPU_RB0505:74AHCT1G04 U?
U 2 1 5E95C481
P 1850 2300
F 0 "U?" H 1950 2650 50  0000 C CNN
F 1 "74AHCT1G04" V 2000 2250 50  0000 C CNN
F 2 "Package_TO_SOT_SMD:SOT-353_SC-70-5" H 1850 2300 50  0001 C CNN
F 3 "" H 1850 2300 50  0001 C CNN
	2    1850 2300
	1    0    0    -1  
$EndComp
$Comp
L CPU_RB0505:74HCT1G32GW U?
U 2 1 5E8D840E
P 4600 5200
F 0 "U?" H 4400 5550 50  0000 C CNN
F 1 "74HCT1G32GW" V 4450 5200 50  0000 C CNN
F 2 "" H 4600 5200 50  0001 C CNN
F 3 "" H 4600 5200 50  0001 C CNN
	2    4600 5200
	1    0    0    -1  
$EndComp
$Comp
L CPU_RB0505:SN74ALVC164245 U?
U 3 1 5E8DF4A9
P 5100 5250
F 0 "U?" H 5100 5650 50  0000 C CNN
F 1 "GD9FU1G8F2AMGI" H 5100 5823 50  0000 C CNN
F 2 "Package_SO:TSOP-I-48_18.4x12mm_P0.5mm" H 5700 4550 50  0001 C CNN
F 3 "" H 5050 5000 50  0001 C CNN
	3    5100 5250
	1    0    0    -1  
$EndComp
$Comp
L Memory_EEPROM:25LCxxx U?
U 1 1 5E8CDBC2
P 8100 5000
F 0 "U?" H 7850 5250 50  0000 C CNN
F 1 "GD9FU1G8F2AMGI" H 8450 5250 50  0000 C CNN
F 2 "Package_SO:TSOP-I-48_18.4x12mm_P0.5mm" H 8100 5000 50  0001 C CNN
F 3 "" H 8100 5000 50  0001 C CNN
	1    8100 5000
	1    0    0    -1  
$EndComp
$Comp
L CPU_RB0505:SN74ALVC164245 U?
U 1 1 5E8DC4C9
P 2100 4900
F 0 "U?" H 1800 5550 50  0000 C CNN
F 1 "GD9FU1G8F2AMGI" V 2100 4900 50  0000 C CNN
F 2 "Package_SO:TSOP-I-48_18.4x12mm_P0.5mm" H 2700 4200 50  0001 C CNN
F 3 "" H 2050 4650 50  0001 C CNN
	1    2100 4900
	-1   0    0    -1  
$EndComp
$Comp
L CPU_RB0505:SN74ALVC164245 U?
U 2 1 5E8DE9BD
P 2100 6450
F 0 "U?" H 1800 7100 50  0000 C CNN
F 1 "SN74ALVC164245" V 2100 6450 50  0000 C CNN
F 2 "Package_SO:TSSOP-48_6.1x12.5mm_P0.5mm" H 2700 5750 50  0001 C CNN
F 3 "" H 2050 6200 50  0001 C CNN
	2    2100 6450
	-1   0    0    -1  
$EndComp
$Comp
L CPU_RB0505:GD9FU1G8F2AMGI U?
U 1 1 5E8DAAA7
P 3950 5950
F 0 "U?" H 3950 7400 65  0000 L CNN
F 1 "GD9FU1G8F2AMGI" H 3550 4250 60  0000 L CNN
F 2 "Package_SO:TSOP-I-48_18.4x12mm_P0.5mm" H 3350 7000 50  0001 C CNN
F 3 "" H 3350 7000 50  0001 C CNN
	1    3950 5950
	1    0    0    -1  
$EndComp
$Comp
L CPU_RB0505:74ACT16373 U?
U 1 1 5E952C6B
P 3300 2150
F 0 "U?" H 3250 3414 50  0000 C CNN
F 1 "74ACT16373" H 3250 3323 50  0000 C CNN
F 2 "" H 3300 2050 50  0001 C CNN
F 3 "" H 3300 2050 50  0001 C CNN
	1    3300 2150
	1    0    0    -1  
$EndComp
$EndSCHEMATC
